…
Alternatively, if you want to the keep other columns when filtering for unique rows, you can use the .

keep_all = TRUE option.

flights\|\>  [distinct](https://dplyr.tidyverse.org/reference/distinct.html)(origin, dest, .keep_all =TRUE)

It\'s not a coincidence that all of these distinct flights are on January 1: [distinct()](https://dplyr.tidyverse.org/reference/distinct.html) will find the first occurrence of a unique row in the dataset and discard the rest.

If you want to find the number of occurrences instead, you\'re better off swapping [distinct()](https://dplyr.tidyverse.org/reference/distinct.html) for [count()](https://dplyr.tidyverse.org/reference/count.html), and with the sort = TRUE argument you can arrange them in descending order of number of occurrences.

flights \|\>

  count(origin, dest, sort = TRUE)

#\> \# A tibble: 224 × 3

#\>   origin dest      n

#\>   \<chr\>  \<chr\> \<int\>

#\> 1 JFK    LAX   11262

#\> 2 LGA    ATL   10263

#\> 3 LGA    ORD    8857

#\> 4 JFK    SFO    8204

#\> 5 LGA    CLT    6168

#\> 6 EWR    ORD    6100

#\> \# ℹ 218 more rows
…
